{
  "env": "dev",
  "instance_url": "http://127.0.0.1",
  "instance_port": 3100,
  "instance_port_socket": 8180,
  "access_pk": "GENERATE_RANDOM_KEY_OF_64_CHAR_HERE",
  "cron_pk": "GENERATE_RANDOM_KEY_OF_64_CHAR_HERE",
  "serve_public_folder": true,
  "public_folder_path": "./public",
  "ssl_key": null,
  "ssl_cert": null,
  "ssl_ca": null,
  "cookies": {
    "secure": false,
    "same_site": "None"
  },
  "cors_bypass": [
    "http://127.0.0.1",
    "http://127.0.0.1:8081",
    "http://localhost:8081",
    "http://localhost:3000",
    "http://localhost:8080",
    "http://localhost:3100",
    "http://localhost:8180"
  ],
  "bind_ports": {
    "http": 3100,
    "socket": 8180
  },
  "root_node": {
    "url": "http://127.0.0.1",
    "port": 3000
  },
  "database": {
    "host": "plaanet-database-dev",
    "port": 27017,
    "name": "plaanet-dev-node2",
    "username": null,
    "password": null,
    "secure": false
  }
}
